<?xml version="1.0" encoding="UTF-8" standalone="no"?>
<svg width="70px" height="70px" viewBox="0 0 70 70" version="1.1" xmlns="http://www.w3.org/2000/svg" xmlns:xlink="http://www.w3.org/1999/xlink">
    <!-- Generator: Sketch 41.2 (35397) - http://www.bohemiancoding.com/sketch -->
    <title>mail</title>
    <desc>Created with Sketch.</desc>
    <defs></defs>
    <g id="final" stroke="none" stroke-width="1" fill="none" fill-rule="evenodd">
        <path d="M34.9578947,0 C44.6684211,0 52.9223684,3.40277778 59.7197368,10.2083333 C66.5171053,17.0138889 69.9157895,25.2777778 69.9157895,35 C69.9157895,44.625 66.5171053,52.8645833 59.7197368,59.71875 C52.9223684,66.5729167 44.6684211,70 34.9578947,70 C25.3444737,70 17.1148026,66.5729167 10.2688816,59.71875 C3.42296053,52.8645833 0,44.625 0,35 C0,25.2777778 3.42296053,17.0138889 10.2688816,10.2083333 C17.1148026,3.40277778 25.3444737,0 34.9578947,0 Z M48,25 L35,37 L22,25 L48,25 Z M20,45.6551724 L20,26 L34.5527273,39.609909 C34.6809091,39.7287024 34.8404545,39.7888323 35,39.7888323 C35.1595455,39.7888323 35.3190909,39.7287024 35.4472727,39.6084424 L50,26 L50,45.6551724 L20,45.6551724 Z" id="mail" fill="#33B5E5"></path>
    </g>
</svg>