<?xml version="1.0" encoding="UTF-8" standalone="no"?>
<svg width="17px" height="41px" viewBox="0 0 17 41" version="1.1" xmlns="http://www.w3.org/2000/svg" xmlns:xlink="http://www.w3.org/1999/xlink">
    <!-- Generator: Sketch 41.2 (35397) - http://www.bohemiancoding.com/sketch -->
    <title>down</title>
    <desc>Created with Sketch.</desc>
    <defs></defs>
    <g id="Styleguide" stroke="none" stroke-width="1" fill="none" fill-rule="evenodd">
        <g id="Icons" transform="translate(-569.000000, -129.000000)" fill="#FFFFFF">
            <g id="arrows" transform="translate(59.000000, 129.000000)">
                <path d="M525.012201,32.3472174 L519.345368,37.957087 L519.345368,0.891304348 C519.345368,0.399304348 518.941881,4.54747351e-13 518.444727,4.54747351e-13 C517.947573,4.54747351e-13 517.544086,0.399304348 517.544086,0.891304348 L517.544086,37.957087 L511.877253,32.349 C511.526003,32.0013913 510.954996,32.0013913 510.603746,32.349 C510.252496,32.6966087 510.252496,33.2616957 510.603746,33.6093043 L517.807073,40.7379565 C517.889932,40.8199565 517.990804,40.885913 518.100682,40.9322609 C518.21056,40.9768261 518.327644,41 518.444727,41 C518.56181,41 518.678894,40.9768261 518.788772,40.9322609 C518.900451,40.8876957 518.999522,40.8217391 519.082381,40.7379565 L526.285708,33.6093043 C526.636958,33.2616957 526.636958,32.6966087 526.285708,32.349 C525.934458,32.0013913 525.365253,31.9996087 525.012201,32.3472174 Z" id="Shape" transform="translate(518.444727, 20.500000) scale(-1, 1) translate(-518.444727, -20.500000) "></path>
            </g>
        </g>
    </g>
</svg>