<?xml version="1.0" encoding="UTF-8" standalone="no"?>
<svg width="450px" height="450px" viewBox="0 0 450 450" version="1.1" xmlns="http://www.w3.org/2000/svg" xmlns:xlink="http://www.w3.org/1999/xlink">
    <!-- Generator: Sketch 41.2 (35397) - http://www.bohemiancoding.com/sketch -->
    <title>logo</title>
    <desc>Created with Sketch.</desc>
    <defs></defs>
    <g id="Styleguide" stroke="none" stroke-width="1" fill="none" fill-rule="evenodd">
        <g id="logo_AIR14_sans-date" transform="translate(63.000000, 164.000000)">
            <path d="M59.115103,87.8661681 L35.8543407,23.7665468 L23.7300723,23.7665468 L0.469364524,87.8661681 L16.9045195,87.8661681 L20.0478425,78.32329 L39.7161799,78.32329 L42.6798935,87.8661681 L59.115103,87.8661681 Z M35.5849264,65.1791901 L24.4485104,65.1791901 L30.1963279,48.074012 L35.5849264,65.1791901 Z M81.2980521,23.7665468 L65.5813587,23.7665468 L65.5813587,87.8661681 L81.2980521,87.8661681 L81.2980521,23.7665468 Z M144.791976,87.8661681 L130.961339,61.128011 C135.990641,58.6072183 141.379239,53.1155193 141.379239,44.3828457 C141.379239,33.8496394 133.745443,23.7665468 119.555509,23.7665468 L94.229159,23.7665468 L94.229159,87.8661681 L109.945852,87.8661681 L109.945852,64.0088946 L115.244646,64.0088946 L126.560671,87.8661681 L144.791976,87.8661681 Z M125.662546,44.3828457 C125.662546,47.7138429 123.147856,50.8648729 118.836993,50.8648729 L109.945852,50.8648729 L109.945852,37.9008967 L118.836993,37.9008967 C123.147856,37.9008967 125.662546,41.0518485 125.662546,44.3828457 L125.662546,44.3828457 Z M243.220425,79.4035627 L243.220425,65.3593137 L238.46046,65.3593137 L238.46046,56.8967083 L224.450136,56.8967083 L224.450136,65.3593137 L214.122041,65.3593137 L235.317137,23.7665468 L219.15142,23.7665468 L197.956323,65.3593137 L197.956323,79.4035627 L224.450136,79.4035627 L224.450136,87.8661681 L238.46046,87.8661681 L238.46046,79.4035627 L243.220425,79.4035627 Z" id="Fill-1" fill="#1A1918"></path>
            <g id="Group-8" transform="translate(157.606985, 0.000000)">
                <polygon id="Fill-3" fill="#1A1918" points="0.587905263 34.7378219 0.587905263 18.9154873 21.6190749 0.711891259 42.6502446 18.9154873 42.6502446 34.7378219 28.9879817 22.4880833 28.9879817 87.9036319 14.3916243 87.9036319 14.3916243 22.4880833"></polygon>
                <polygon id="Fill-5" fill="#1A1919" points="99.1382265 87.9037883 163.20694 87.9037883 163.20694 23.6795822 99.1382265 23.6795822"></polygon>
                <polygon id="Fill-6" fill="#FFFFFF" points="125.248164 76.1949682 137.383691 76.1949682 137.383691 35.8670948 125.248164 35.8670948"></polygon>
                <polygon id="Fill-7" fill="#FFFFFF" points="151.382757 49.9481428 111.152482 49.9481428 111.152482 62.113099 151.382757 62.113099"></polygon>
            </g>
            <path d="M20.8234718,100.957553 C20.8234718,95.8462016 17.2445448,92.6187579 12.0670071,92.6187579 L1.51811417,92.6187579 L1.51811417,121.030743 L4.53871445,121.030743 L4.53871445,109.336862 L12.0670071,109.336862 C17.2445448,109.336862 20.8234718,106.068904 20.8234718,100.957553 L20.8234718,100.957553 Z M17.802099,100.957553 C17.802099,104.710976 15.333053,106.627811 11.7878477,106.627811 L4.53871445,106.627811 L4.53871445,95.3278083 L11.7878477,95.3278083 C15.333053,95.3278083 17.802099,97.2041291 17.802099,100.957553 L17.802099,100.957553 Z M45.0496159,121.030743 L34.6571518,92.6187579 L32.1095363,92.6187579 L21.6773583,121.030743 L24.9022937,121.030743 L27.1722244,114.605029 L39.5547498,114.605029 L41.8239783,121.030743 L45.0496159,121.030743 Z M38.6790948,111.976225 L28.0875933,111.976225 L33.4229798,96.9685527 L38.6790948,111.976225 Z M64.0346256,92.6187579 L60.7700544,92.6187579 L54.1630447,106.226424 L47.4759832,92.6187579 L44.211412,92.6187579 L52.6519683,109.298616 L52.6519683,121.030743 L55.673341,121.030743 L55.673341,109.298616 L64.0346256,92.6187579 Z M86.8290429,121.030743 L86.8290429,118.321614 L72.2559365,118.321614 L72.2559365,108.059258 L84.6788779,108.059258 L84.6788779,105.35013 L72.2559365,105.35013 L72.2559365,95.3278083 L86.8290429,95.3278083 L86.8290429,92.6187579 L69.235344,92.6187579 L69.235344,121.030743 L86.8290429,121.030743 Z M112.787772,121.030743 L106.063337,108.139505 C109.726763,107.382563 112.230998,104.671166 112.230998,100.518702 C112.230998,95.6069492 108.771836,92.6187579 103.832262,92.6187579 L92.964558,92.6187579 L92.964558,121.030743 L95.9859307,121.030743 L95.9859307,108.418567 L102.797205,108.418567 L109.249261,121.030743 L112.787772,121.030743 Z M109.209625,100.558434 C109.209625,104.032716 106.859642,105.749249 103.553875,105.749249 L95.9859307,105.749249 L95.9859307,95.3278083 L103.553875,95.3278083 C106.859642,95.3278083 109.209625,97.0841509 109.209625,100.558434 L109.209625,100.558434 Z M139.881895,121.030743 L139.881895,92.6187579 L136.861302,92.6187579 L136.861302,115.324507 L121.806168,92.6187579 L118.944275,92.6187579 L118.944275,121.030743 L121.964867,121.030743 L121.964867,98.2454519 L137.019924,121.030743 L139.881895,121.030743 Z M165.161041,121.030743 L165.161041,118.321614 L150.588715,118.321614 L150.588715,108.059258 L163.010876,108.059258 L163.010876,105.35013 L150.588715,105.35013 L150.588715,95.3278083 L165.161041,95.3278083 L165.161041,92.6187579 L147.567342,92.6187579 L147.567342,121.030743 L165.161041,121.030743 Z M210.390734,113.211828 C210.390734,110.856846 209.556198,108.900279 208.005485,107.582865 C206.81251,106.545297 205.497584,105.986389 202.8295,105.587192 L199.722068,105.107827 C198.248443,104.868496 196.774817,104.309589 195.898382,103.551083 C195.022025,102.792655 194.623872,101.674762 194.623872,100.277885 C194.623872,97.1238829 196.814453,95.0082316 200.598425,95.0082316 C203.586092,95.0082316 205.45787,95.8462016 207.210662,97.4434597 L209.158825,95.4868928 C206.732458,93.2954534 204.342761,92.3786451 200.718191,92.3786451 C195.102077,92.3786451 191.642915,95.567139 191.642915,100.397159 C191.642915,102.672599 192.358389,104.429645 193.789413,105.706545 C195.022025,106.784627 196.774817,107.503323 199.005112,107.86271 L202.311582,108.381807 C204.382397,108.70068 205.099431,108.940793 206.015502,109.739031 C206.931495,110.537269 207.370064,111.814872 207.370064,113.292074 C207.370064,116.605082 204.820966,118.561727 200.678555,118.561727 C197.491773,118.561727 195.301192,117.803221 192.954174,115.447535 L190.886246,117.523376 C193.550662,120.194963 196.336249,121.270778 200.598425,121.270778 C206.493707,121.270778 210.390734,118.20234 210.390734,113.211828 L210.390734,113.211828 Z M236.131622,111.65657 L236.131622,92.6187579 L233.110327,92.6187579 L233.110327,111.417239 C233.110327,115.72738 230.362114,118.561727 226.219625,118.561727 C222.077916,118.561727 219.369417,115.72738 219.369417,111.417239 L219.369417,92.6187579 L216.348044,92.6187579 L216.348044,111.65657 C216.348044,117.323856 220.484525,121.270778 226.219625,121.270778 C231.955505,121.270778 236.131622,117.323856 236.131622,111.65657 L236.131622,111.65657 Z M246.598989,92.6187579 L243.577616,92.6187579 L243.577616,121.031447 L246.598989,121.031447 L246.598989,92.6187579 Z M271.941724,113.211828 C271.941724,110.856846 271.106485,108.900279 269.556553,107.582865 C268.362797,106.545297 267.048651,105.986389 264.379787,105.587192 L261.273135,105.107827 C259.79951,104.868496 258.325104,104.309589 257.448747,103.551083 C256.573092,102.792655 256.174159,101.674762 256.174159,100.277885 C256.174159,97.1238829 258.36552,95.0082316 262.149492,95.0082316 C265.136457,95.0082316 267.008937,95.8462016 268.761027,97.4434597 L270.709112,95.4868928 C268.283525,93.2954534 265.893048,92.3786451 262.268478,92.3786451 C256.652364,92.3786451 253.193202,95.567139 253.193202,100.397159 C253.193202,102.672599 253.908754,104.429645 255.3397,105.706545 C256.573092,106.784627 258.325104,107.503323 260.556101,107.86271 L263.861869,108.381807 C265.933464,108.70068 266.650498,108.940793 267.566491,109.739031 C268.482562,110.537269 268.920429,111.814872 268.920429,113.292074 C268.920429,116.605082 266.371331,118.561727 262.228842,118.561727 C259.04206,118.561727 256.851479,117.803221 254.505242,115.447535 L252.436611,117.523376 C255.100949,120.194963 257.887316,121.270778 262.149492,121.270778 C268.043994,121.270778 271.941724,118.20234 271.941724,113.211828 L271.941724,113.211828 Z M295.989819,113.211828 C295.989819,110.856846 295.155282,108.900279 293.60535,107.582865 C292.411594,106.545297 291.096668,105.986389 288.428585,105.587192 L285.321152,105.107827 C283.847527,104.868496 282.373902,104.309589 281.497466,103.551083 C280.621109,102.792655 280.222956,101.674762 280.222956,100.277885 C280.222956,97.1238829 282.413537,95.0082316 286.197509,95.0082316 C289.185176,95.0082316 291.056954,95.8462016 292.809747,97.4434597 L294.757909,95.4868928 C292.331542,93.2954534 289.941846,92.3786451 286.317275,92.3786451 C280.701161,92.3786451 277.242,95.567139 277.242,100.397159 C277.242,102.672599 277.957473,104.429645 279.388498,105.706545 C280.621109,106.784627 282.373902,107.503323 284.604196,107.86271 L287.910666,108.381807 C289.981481,108.70068 290.698515,108.940793 291.614586,109.739031 C292.530579,110.537269 292.969148,111.814872 292.969148,113.292074 C292.969148,116.605082 290.42005,118.561727 286.277639,118.561727 C283.090857,118.561727 280.900276,117.803221 278.553259,115.447535 L276.485408,117.523376 C279.149746,120.194963 281.936035,121.270778 286.197509,121.270778 C292.092791,121.270778 295.989819,118.20234 295.989819,113.211828 L295.989819,113.211828 Z M319.739943,121.030743 L319.739943,118.321614 L305.167617,118.321614 L305.167617,108.059258 L317.589778,108.059258 L317.589778,105.35013 L305.167617,105.35013 L305.167617,95.3278083 L319.739943,95.3278083 L319.739943,92.6187579 L302.146244,92.6187579 L302.146244,121.030743 L319.739943,121.030743 Z" id="Fill-9" fill="#1A1918"></path>
            <polygon id="Fill-11" fill="#1A1919" points="171.970131 120.994218 186.651018 120.994218 186.651018 92.6677737 171.970131 92.6677737"></polygon>
        </g>
    </g>
</svg>